Gov 50 Final Project
…
first_second_third <- firstfilm|>
  inner_join(sequelfilms, by = c("series"))|>
  rename(Order = Order.y)|>
  filter(first_film_revenue > 10000 | sequels_revenue > 10000)

first_second_third

# A tibble: 212 x 9
# Groups:   series [159]
   series        Order.x first~1 first~2 first~3 Order seque~4 seque~5
   <chr>         <chr>     <int>   <dbl>   <int> <chr>   <int>   <dbl>
 1 101 Dalmatia~ 1        3.21e8     5.7   5.4e7 2      1.84e8     4.9
 2 12 Rounds     1        1.73e7     5.6   2  e7 2      0          5.3
 3 21 Jump Stre~ 1        2.02e8     7.2   4.2e7 2      1.88e8     7  
 4 A Nightmare ~ 1        2.55e7     7.5   1.8e6 2      3.00e7     5.5
 5 A Nightmare ~ 1        2.55e7     7.5   1.8e6 3      4.48e7     6.6
 6 Ace Ventura   1        1.07e8     6.9   1.5e7 2      2.12e8     6.4
 7 Agent Cody B~ 1        5.88e7     5     2.8e7 2      2.88e7     4.6
 8 Alice in Won~ 1        1.03e9     6.4   2  e8 2      2.99e8     6.2
 9 Alien         1        1.05e8     8.4   1.1e7 2      1.83e8     8.3
10 Alvin and th~ 1        3.61e8     5.2   6  e7 2      4.43e8     4.5
# ... with 202 more rows, 1 more variable: sequels_budget <int>, and
#   abbreviated variable names 1: first_film_revenue,
#   2: first_film_imdb, 3: first_film_budget, 4: sequels_revenue,
#   5: sequels_imdb
…
